C:\Selenide_framework_git\FewSelenium\src\main\java\com\personal\ApplicationPages\AuthorHomePage.java
C:\Selenide_framework_git\FewSelenium\src\main\java\com\personal\CommonToAllPages\BasePage.java
C:\Selenide_framework_git\FewSelenium\src\main\java\com\personal\CommonToAllPages\Browser.java
C:\Selenide_framework_git\FewSelenium\src\main\java\com\personal\Input\ConfigReader.java
C:\Selenide_framework_git\FewSelenium\src\main\java\com\personal\CommonToAllPages\PageManager.java
C:\Selenide_framework_git\FewSelenium\src\main\java\com\personal\CommonToAllPages\LogInPage.java
C:\Selenide_framework_git\FewSelenium\src\main\java\com\personal\Driver\DriverFactory.java
